{
  "basename": "tooljet_0.0.0+20230425084812-1_arm64.deb",
  "md5": "cf9ae06942cc1d933207239a878bf8f1",
  "sha1": "c0a9ec96f97cdc8070b58eed042e4647f121b645",
  "sha256": "8be2e0b4fe52d09bd22095d173faceec636f0bf26963364e208a468a2c9eb701",
  "sha512": "a8d1d6fadc61587888faaeee114b96c3213825df1f8b817cea068ba943d0eb4ab767d728a4493b178f1050931d7221ef454a677c40f152850fb10a79e09d55fe",
  "platform": "debian",
  "platform_version": "11",
  "arch": "aarch64",
  "name": "tooljet",
  "friendly_name": "Tooljet",
  "homepage": "https://tooljet.com",
  "version": "0.0.0+20230425084812",
  "iteration": 1,
  "license": "Unspecified",
  "version_manifest": {
    "manifest_format": 2,
    "software": {
      "preparation": {
        "locked_version": "1.0.0",
        "locked_source": null,
        "source_type": "project_local",
        "described_version": "1.0.0",
        "license": "project_license"
      },
      "zlib": {
        "locked_version": "1.2.13",
        "locked_source": {
          "sha256": "b3a24de97a8fdbc835b9833169501030b8977031bcb54b3b3ac13740f846ab30",
          "url": "https://zlib.net/fossils/zlib-1.2.13.tar.gz"
        },
        "source_type": "url",
        "described_version": "1.2.13",
        "license": "Zlib"
      },
      "cacerts": {
        "locked_version": "2022-10-11",
        "locked_source": {
          "url": "https://curl.se/ca/cacert-2022-10-11.pem",
          "sha256": "2cff03f9efdaf52626bd1b451d700605dc1ea000c5da56bd0fc59f8f43071040"
        },
        "source_type": "url",
        "described_version": "2022-10-11",
        "license": "MPL-2.0"
      },
      "openssl": {
        "locked_version": "1.0.2zg",
        "locked_source": {
          "url": "https://s3.amazonaws.com/chef-releng/openssl/openssl-1.0.2zg.tar.gz",
          "extract": "lax_tar",
          "sha256": "09f8372eaede77ec8e6945e2d2d8eeb1b91662980cf23fe95f627b377162296c"
        },
        "source_type": "url",
        "described_version": "1.0.2zg",
        "license": "OpenSSL"
      },
      "curl": {
        "locked_version": "7.85.0",
        "locked_source": {
          "sha256": "78a06f918bd5fde3c4573ef4f9806f56372b32ec1829c9ec474799eeee641c27",
          "url": "https://curl.haxx.se/download/curl-7.85.0.tar.gz"
        },
        "source_type": "url",
        "described_version": "7.85.0",
        "license": "MIT"
      }
    },
    "build_version": "0.0.0+20230425084812",
    "build_git_revision": "abfaced055476a0dc33a691fafaf720cd8c49d43",
    "license": "Unspecified"
  },
  "license_content": "tooljet 0.0.0+20230425084812 license: \"Unspecified\"\n\n\n\n\n\nThis product bundles cacerts 2022-10-11,\nwhich is available under a \"MPL-2.0\" License.\nFor details, see:\n/opt/tooljet/LICENSES/cacerts-index.815ca599c9df.txt\n\nThis product bundles curl 7.85.0,\nwhich is available under a \"MIT\" License.\nFor details, see:\n/opt/tooljet/LICENSES/curl-COPYING\n\nThis product bundles openssl 1.0.2zg,\nwhich is available under a \"OpenSSL\" License.\nFor details, see:\n/opt/tooljet/LICENSES/openssl-LICENSE\n\nThis product bundles zlib 1.2.13,\nwhich is available under a \"Zlib\" License.\nFor details, see:\n/opt/tooljet/LICENSES/zlib-README\n\n\n\n\n"
}
